<?xml version="1.0" encoding="utf-8"?>
<!-- Generator: Adobe Illustrator 23.0.3, SVG Export Plug-In . SVG Version: 6.00 Build 0)  -->
<svg version="1.1" id="Layer_1" xmlns="http://www.w3.org/2000/svg" xmlns:xlink="http://www.w3.org/1999/xlink" x="0px" y="0px"
	 viewBox="0 0 640 640" style="enable-background:new 0 0 640 640;" xml:space="preserve">
<style type="text/css">
	.st0{opacity:0.16;}
	.st1{fill:#808080;}
	.st2{opacity:0.06;fill:#808080;}
	.st3{opacity:0.36;fill:#ED1E79;}
</style>
<g class="st0">
	<circle class="st1" cx="274" cy="480" r="48"/>
</g>
<path class="st2" d="M76,84c-26.93,0-52.6,5.39-76,15.12v365.76C23.4,474.61,49.07,480,76,480c109.35,0,198-88.65,198-198
	S185.35,84,76,84z"/>
<path class="st3" d="M0,404v152c41.97,0,76-34.03,76-76S41.97,404,0,404z"/>
</svg>
